{
  "file_generated_by": "FlutterFire CLI",
  "purpose": "FirebaseAppID & ProjectID for this Firebase app in this directory",
  "GOOGLE_APP_ID": "1:203154104993:ios:d2ebd23052d6acee2686e0",
  "FIREBASE_PROJECT_ID": "appflutteralt3",
  "GCM_SENDER_ID": "203154104993"
}